[
    {
        "_id": "b-100",
        "_parentId": "a-10",
        "_type": "block",
        "_classes": "",
        "body": "",
        "displayTitle": "",
        "title": "",
        "_trackingId": 1
    },
    {
        "_id": "b-105",
        "_parentId": "a-10",
        "_type": "block",
        "_classes": "",
        "body": "",
        "displayTitle": "",
        "title": "",
        "_trackingId": 4
    },
    {
        "_id": "b-120",
        "_parentId": "a-10",
        "_type": "block",
        "_classes": "",
        "body": "",
        "displayTitle": "",
        "title": "",
        "_trackingId": 42
    },
    {
        "_id": "b-130",
        "_parentId": "a-10",
        "_type": "block",
        "_classes": "",
        "body": "",
        "displayTitle": "",
        "title": "",
        "_trackingId": 44
    },
    {
        "_id": "b-135",
        "_parentId": "a-10",
        "_type": "block",
        "_classes": "",
        "body": "",
        "displayTitle": "",
        "title": "",
        "_trackingId": 78
    },
    {
        "_id": "b-140",
        "_parentId": "a-10",
        "_type": "block",
        "_classes": "",
        "body": "",
        "displayTitle": "",
        "title": "",
        "_trackingId": 79
    },
    {
        "_id": "b-199",
        "_parentId": "a-10",
        "_type": "block",
        "_classes": "",
        "body": "",
        "displayTitle": "",
        "title": "",
        "_trackingId": 80
    },
    {
        "_id": "b-200",
        "_parentId": "a-20",
        "_type": "block",
        "_classes": "",
        "body": "",
        "displayTitle": "",
        "title": "",
        "_trackingId": 5
    },
    {
        "_id": "b-205",
        "_parentId": "a-20",
        "_type": "block",
        "_classes": "",
        "body": "",
        "displayTitle": "",
        "title": "",
        "_trackingId": 102
    },
    {
        "_id": "b-210",
        "_parentId": "a-20",
        "_type": "block",
        "_classes": "",
        "body": "",
        "displayTitle": "",
        "title": "",
        "_trackingId": 7
    },
    {
        "_id": "b-220",
        "_parentId": "a-20",
        "_type": "block",
        "_classes": "",
        "body": "",
        "displayTitle": "",
        "title": "",
        "_trackingId": 103
    },
    {
        "_id": "b-300",
        "_parentId": "a-30",
        "_type": "block",
        "_classes": "",
        "body": "",
        "displayTitle": "",
        "title": "",
        "_trackingId": 16
    },
    {
        "_id": "b-310",
        "_parentId": "a-30",
        "_type": "block",
        "_classes": "",
        "body": "",
        "displayTitle": "",
        "title": "",
        "_trackingId": 18
    },
    {
        "_id": "b-315",
        "_parentId": "a-30",
        "_type": "block",
        "_classes": "",
        "body": "",
        "displayTitle": "",
        "title": "",
        "_trackingId": 81
    },
    {
        "_id": "b-320",
        "_parentId": "a-30",
        "_type": "block",
        "_classes": "",
        "body": "",
        "displayTitle": "",
        "title": "",
        "_trackingId": 54
    },
    {
        "_id": "b-399",
        "_parentId": "a-35",
        "_type": "block",
        "_classes": "",
        "body": "",
        "displayTitle": "",
        "title": "",
        "_trackingId": 22
    },
    {
        "_id": "b-400",
        "_parentId": "a-40",
        "_type": "block",
        "_classes": "",
        "body": "",
        "displayTitle": "",
        "title": "",
        "_trackingId": 28
    },
    {
        "_id": "b-410",
        "_parentId": "a-40",
        "_type": "block",
        "_classes": "",
        "body": "",
        "displayTitle": "",
        "title": "",
        "_trackingId": 82
    },
    {
        "_id": "b-499",
        "_parentId": "a-40",
        "_type": "block",
        "_classes": "",
        "body": "",
        "displayTitle": "",
        "title": "",
        "_trackingId": 35
    },
    {
        "_id": "b-505",
        "_parentId": "a-50",
        "_type": "block",
        "_classes": "",
        "body": "",
        "displayTitle": "",
        "title": "",
        "_trackingId": 31
    },
    {
        "_id": "b-515",
        "_parentId": "a-55",
        "_type": "block",
        "_classes": "",
        "body": "",
        "displayTitle": "",
        "title": "",
        "_trackingId": 33
    },
    {
        "_id": "b-520",
        "_parentId": "a-55",
        "_type": "block",
        "_classes": "",
        "body": "",
        "displayTitle": "",
        "title": "",
        "_trackingId": 83
    },
    {
        "_id": "b-525",
        "_parentId": "a-55",
        "_type": "block",
        "_classes": "",
        "body": "",
        "displayTitle": "",
        "title": "",
        "_trackingId": 84
    },
    {
        "_id": "b-530",
        "_parentId": "a-55",
        "_type": "block",
        "_classes": "",
        "body": "",
        "displayTitle": "",
        "title": "",
        "_trackingId": 85
    },
    {
        "_id": "b-535",
        "_parentId": "a-55",
        "_type": "block",
        "_classes": "",
        "body": "",
        "displayTitle": "",
        "title": "",
        "_trackingId": 86
    },
    {
        "_id": "b-540",
        "_parentId": "a-55",
        "_type": "block",
        "_classes": "",
        "body": "",
        "displayTitle": "",
        "title": "",
        "_trackingId": 87
    },
    {
        "_id": "b-541",
        "_parentId": "a-55",
        "_type": "block",
        "_classes": "",
        "body": "",
        "displayTitle": "",
        "title": "",
        "_trackingId": 112
    },
    {
        "_id": "b-545",
        "_parentId": "a-56",
        "_type": "block",
        "_classes": "",
        "body": "",
        "displayTitle": "",
        "title": "",
        "_trackingId": 88
    },
    {
        "_id": "b-550",
        "_parentId": "a-56",
        "_type": "block",
        "_classes": "",
        "body": "",
        "displayTitle": "",
        "title": "",
        "_trackingId": 104
    },
    {
        "_id": "b-599",
        "_parentId": "a-56",
        "_type": "block",
        "_classes": "",
        "body": "",
        "displayTitle": "",
        "title": "",
        "_trackingId": 89
    },
    {
        "_id": "b-600",
        "_parentId": "a-60",
        "_type": "block",
        "_classes": "",
        "body": "",
        "displayTitle": "",
        "title": "",
        "_trackingId": 24
    },
    {
        "_id": "b-605",
        "_parentId": "a-60",
        "_type": "block",
        "_classes": "",
        "body": "",
        "displayTitle": "",
        "title": "",
        "_trackingId": 46
    },
    {
        "_id": "b-610",
        "_parentId": "a-60",
        "_type": "block",
        "_classes": "",
        "body": "",
        "displayTitle": "",
        "title": "",
        "_trackingId": 25
    },
    {
        "_id": "b-611",
        "_parentId": "a-60",
        "_type": "block",
        "_classes": "",
        "body": "",
        "displayTitle": "",
        "title": "",
        "_trackingId": 105
    },
    {
        "_id": "b-612",
        "_parentId": "a-60",
        "_type": "block",
        "_classes": "",
        "body": "",
        "displayTitle": "",
        "title": "",
        "_trackingId": 106
    },
    {
        "_id": "b-615",
        "_parentId": "a-60",
        "_type": "block",
        "_classes": "",
        "body": "",
        "displayTitle": "",
        "title": "",
        "_trackingId": 91
    },
    {
        "_id": "b-618",
        "_parentId": "a-60",
        "_type": "block",
        "_classes": "",
        "body": "",
        "displayTitle": "",
        "title": "",
        "_trackingId": 92
    },
    {
        "_id": "b-620",
        "_parentId": "a-60",
        "_type": "block",
        "_classes": "",
        "body": "",
        "displayTitle": "",
        "title": "",
        "_trackingId": 93
    },
    {
        "_id": "b-621",
        "_parentId": "a-60",
        "_type": "block",
        "_classes": "",
        "body": "",
        "displayTitle": "",
        "title": "",
        "_trackingId": 94
    },
    {
        "_id": "b-625",
        "_parentId": "a-60",
        "_type": "block",
        "_classes": "",
        "body": "",
        "displayTitle": "",
        "title": "",
        "_trackingId": 95
    },
    {
        "_id": "b-635",
        "_parentId": "a-60",
        "_type": "block",
        "_classes": "",
        "body": "",
        "displayTitle": "",
        "title": "",
        "_trackingId": 96
    },
    {
        "_id": "b-640",
        "_parentId": "a-60",
        "_type": "block",
        "_classes": "",
        "body": "",
        "displayTitle": "",
        "title": "",
        "_trackingId": 101
    },
    {
        "_id": "b-645",
        "_parentId": "a-60",
        "_type": "block",
        "_classes": "",
        "body": "",
        "displayTitle": "",
        "title": "",
        "_trackingId": 107
    },
    {
        "_id": "b-699",
        "_parentId": "a-60",
        "_type": "block",
        "_classes": "",
        "body": "",
        "displayTitle": "",
        "title": "",
        "_trackingId": 27
    },
    {
        "_id": "b-700",
        "_parentId": "a-70",
        "_type": "block",
        "_classes": "",
        "body": "",
        "displayTitle": "",
        "title": "",
        "_trackingId": 47
    },
    {
        "_id": "b-705",
        "_parentId": "a-70",
        "_type": "block",
        "_classes": "",
        "body": "",
        "displayTitle": "",
        "title": "",
        "_trackingId": 48
    },
    {
        "_id": "b-715",
        "_parentId": "a-70",
        "_type": "block",
        "_classes": "",
        "body": "",
        "displayTitle": "",
        "title": "",
        "_trackingId": 97
    },
    {
        "_id": "b-720",
        "_parentId": "a-70",
        "_type": "block",
        "_classes": "",
        "body": "",
        "displayTitle": "",
        "title": "",
        "_trackingId": 113
    },
    {
        "_id": "b-799",
        "_parentId": "a-70",
        "_type": "block",
        "_classes": "",
        "body": "",
        "displayTitle": "",
        "title": "",
        "_trackingId": 50
    },
    {
        "_id": "b-805",
        "_parentId": "a-80",
        "_type": "block",
        "_classes": "",
        "body": "",
        "displayTitle": "",
        "title": "",
        "_trackingId": 52
    },
    {
        "_id": "b-810",
        "_parentId": "a-80",
        "_type": "block",
        "_classes": "",
        "body": "",
        "displayTitle": "",
        "title": "",
        "_trackingId": 109
    },
    {
        "_id": "b-815",
        "_parentId": "a-80",
        "_type": "block",
        "_classes": "",
        "body": "",
        "displayTitle": "",
        "title": "",
        "_trackingId": 110
    },
    {
        "_id": "b-820",
        "_parentId": "a-80",
        "_type": "block",
        "_classes": "",
        "body": "",
        "displayTitle": "",
        "title": "",
        "_trackingId": 111
    },
    {
        "_id": "b-899",
        "_parentId": "a-80",
        "_type": "block",
        "_classes": "",
        "body": "",
        "displayTitle": "",
        "title": "",
        "_trackingId": 53
    },
    {
        "_id": "b-910",
        "_parentId": "a-90",
        "_type": "block",
        "_classes": "",
        "body": "",
        "displayTitle": "",
        "title": "",
        "_trackingId": 90
    },
    {
        "_id": "b-920",
        "_parentId": "a-90",
        "_type": "block",
        "_classes": "",
        "body": "",
        "displayTitle": "",
        "title": "",
        "_trackingId": 98
    },
    {
        "_id": "b-930",
        "_parentId": "a-90",
        "_type": "block",
        "_classes": "",
        "body": "",
        "displayTitle": "",
        "title": "",
        "_trackingId": 99
    },
    {
        "_id": "b-940",
        "_parentId": "a-90",
        "_type": "block",
        "_classes": "",
        "body": "",
        "displayTitle": "",
        "title": "",
        "_trackingId": 100
    }
]